{
  "medjedi": [
    {
      "ime": "Novak",
      "kilaza": 350,
      "id": 1,
      "visina": 250
    },
    {
      "ime": "Ugljesa",
      "kilaza": 300,
      "id": 2,
      "visina": 185
    },
    {
      "ime": "Jovan",
      "kilaza": 300,
      "visina": 250,
      "id": 3
    }
  ]
}